{
  "items": [
    {
      "album": {
        "album_type": "ALBUM",
        "artists": [
          {
            "external_urls": {
              "spotify": "https://open.spotify.com/artist/4PmxbsWP1u0TnvqcrIA9ze"
            },
            "href": "https://api.spotify.com/v1/artists/4PmxbsWP1u0TnvqcrIA9ze",
            "id": "4PmxbsWP1u0TnvqcrIA9ze",
            "name": "Vieux Farka Touré",
            "type": "artist",
            "uri": "spotify:artist:4PmxbsWP1u0TnvqcrIA9ze"
          },
          {
            "external_urls": {
              "spotify": "https://open.spotify.com/artist/2mVVjNmdjXZZDvhgQWiakk"
            },
            "href": "https://api.spotify.com/v1/artists/2mVVjNmdjXZZDvhgQWiakk",
            "id": "2mVVjNmdjXZZDvhgQWiakk",
            "name": "Khruangbin",
            "type": "artist",
            "uri": "spotify:artist:2mVVjNmdjXZZDvhgQWiakk"
          }
        ],
        "available_markets": [
          "AD",
          "AE",
          "AR",
          "AT",
          "AU",
          "BE",
          "BG",
          "BH",
          "BO",
          "BR",
          "CA",
          "CH",
          "CL",
          "CO",
          "CR",
          "CY",
          "CZ",
          "DE",
          "DK",
          "DO",
          "DZ",
          "EC",
          "EE",
          "EG",
          "ES",
          "FI",
          "FR",
          "GB",
          "GR",
          "GT",
          "HK",
          "HN",
          "HU",
          "ID",
          "IE",
          "IL",
          "IN",
          "IS",
          "IT",
          "JO",
          "JP",
          "KW",
          "LB",
          "LI",
          "LT",
          "LU",
          "LV",
          "MA",
          "MC",
          "MT",
          "MX",
          "MY",
          "NI",
          "NL",
          "NO",
          "NZ",
          "OM",
          "PA",
          "PE",
          "PH",
          "PL",
          "PS",
          "PT",
          "PY",
          "QA",
          "RO",
          "SA",
          "SE",
          "SG",
          "SK",
          "SV",
          "TH",
          "TN",
          "TR",
          "TW",
          "US",
          "UY",
          "VN",
          "ZA"
        ],
        "external_urls": {
          "spotify": "https://open.spotify.com/album/4dfAJiDQHQf4dGX0ZdtxPh"
        },
        "href": "https://api.spotify.com/v1/albums/4dfAJiDQHQf4dGX0ZdtxPh",
        "id": "4dfAJiDQHQf4dGX0ZdtxPh",
        "images": [
          {
            "height": 640,
            "url": "https://i.scdn.co/image/ab67616d0000b27338c09d1b8121ca97828aceb4",
            "width": 640
          },
          {
            "height": 300,
            "url": "https://i.scdn.co/image/ab67616d00001e0238c09d1b8121ca97828aceb4",
            "width": 300
          },
          {
            "height": 64,
            "url": "https://i.scdn.co/image/ab67616d0000485138c09d1b8121ca97828aceb4",
            "width": 64
          }
        ],
        "name": "Ali",
        "release_date": "2022-09-23",
        "release_date_precision": "day",
        "total_tracks": 8,
        "type": "album",
        "uri": "spotify:album:4dfAJiDQHQf4dGX0ZdtxPh"
      },
      "artists": [
        {
          "external_urls": {
            "spotify": "https://open.spotify.com/artist/4PmxbsWP1u0TnvqcrIA9ze"
          },
          "href": "https://api.spotify.com/v1/artists/4PmxbsWP1u0TnvqcrIA9ze",
          "id": "4PmxbsWP1u0TnvqcrIA9ze",
          "name": "Vieux Farka Touré",
          "type": "artist",
          "uri": "spotify:artist:4PmxbsWP1u0TnvqcrIA9ze"
        },
        {
          "external_urls": {
            "spotify": "https://open.spotify.com/artist/2mVVjNmdjXZZDvhgQWiakk"
          },
          "href": "https://api.spotify.com/v1/artists/2mVVjNmdjXZZDvhgQWiakk",
          "id": "2mVVjNmdjXZZDvhgQWiakk",
          "name": "Khruangbin",
          "type": "artist",
          "uri": "spotify:artist:2mVVjNmdjXZZDvhgQWiakk"
        }
      ],
      "available_markets": [
        "AD",
        "AE",
        "AR",
        "AT",
        "AU",
        "BE",
        "BG",
        "BH",
        "BO",
        "BR",
        "CA",
        "CH",
        "CL",
        "CO",
        "CR",
        "CY",
        "CZ",
        "DE",
        "DK",
        "DO",
        "DZ",
        "EC",
        "EE",
        "EG",
        "ES",
        "FI",
        "FR",
        "GB",
        "GR",
        "GT",
        "HK",
        "HN",
        "HU",
        "ID",
        "IE",
        "IL",
        "IN",
        "IS",
        "IT",
        "JO",
        "JP",
        "KW",
        "LB",
        "LI",
        "LT",
        "LU",
        "LV",
        "MA",
        "MC",
        "MT",
        "MX",
        "MY",
        "NI",
        "NL",
        "NO",
        "NZ",
        "OM",
        "PA",
        "PE",
        "PH",
        "PL",
        "PS",
        "PT",
        "PY",
        "QA",
        "RO",
        "SA",
        "SE",
        "SG",
        "SK",
        "SV",
        "TH",
        "TN",
        "TR",
        "TW",
        "US",
        "UY",
        "VN",
        "ZA"
      ],
      "disc_number": 1,
      "duration_ms": 301242,
      "explicit": false,
      "external_ids": {
        "isrc": "USJ5G2127403"
      },
      "external_urls": {
        "spotify": "https://open.spotify.com/track/36huM0UOR9A17TYAape2Xg"
      },
      "href": "https://api.spotify.com/v1/tracks/36huM0UOR9A17TYAape2Xg",
      "id": "36huM0UOR9A17TYAape2Xg",
      "is_local": false,
      "name": "Diarabi",
      "popularity": 59,
      "preview_url": "https://p.scdn.co/mp3-preview/d01bbe3a82e87458137fb42f8c5db3c12c5407a6?cid=cfe923b2d660439caf2b557b21f31221",
      "track_number": 3,
      "type": "track",
      "uri": "spotify:track:36huM0UOR9A17TYAape2Xg"
    },
    {
      "album": {
        "album_type": "SINGLE",
        "artists": [
          {
            "external_urls": {
              "spotify": "https://open.spotify.com/artist/74XFHRwlV6OrjEM0A2NCMF"
            },
            "href": "https://api.spotify.com/v1/artists/74XFHRwlV6OrjEM0A2NCMF",
            "id": "74XFHRwlV6OrjEM0A2NCMF",
            "name": "Paramore",
            "type": "artist",
            "uri": "spotify:artist:74XFHRwlV6OrjEM0A2NCMF"
          }
        ],
        "available_markets": [
          "AD",
          "AE",
          "AR",
          "AT",
          "AU",
          "BE",
          "BG",
          "BH",
          "BO",
          "BR",
          "CA",
          "CH",
          "CL",
          "CO",
          "CR",
          "CY",
          "CZ",
          "DE",
          "DK",
          "DO",
          "DZ",
          "EC",
          "EE",
          "EG",
          "ES",
          "FI",
          "FR",
          "GB",
          "GR",
          "GT",
          "HK",
          "HN",
          "HU",
          "ID",
          "IE",
          "IL",
          "IN",
          "IS",
          "IT",
          "JO",
          "JP",
          "KW",
          "LB",
          "LI",
          "LT",
          "LU",
          "LV",
          "MA",
          "MC",
          "MT",
          "MX",
          "MY",
          "NI",
          "NL",
          "NO",
          "NZ",
          "OM",
          "PA",
          "PE",
          "PH",
          "PL",
          "PS",
          "PT",
          "PY",
          "QA",
          "RO",
          "SA",
          "SE",
          "SG",
          "SK",
          "SV",
          "TH",
          "TN",
          "TR",
          "TW",
          "US",
          "UY",
          "VN",
          "ZA"
        ],
        "external_urls": {
          "spotify": "https://open.spotify.com/album/70iJhodSPkl7FR1VW4n0KF"
        },
        "href": "https://api.spotify.com/v1/albums/70iJhodSPkl7FR1VW4n0KF",
        "id": "70iJhodSPkl7FR1VW4n0KF",
        "images": [
          {
            "height": 640,
            "url": "https://i.scdn.co/image/ab67616d0000b273b236d0eae2659e7e7adb8b56",
            "width": 640
          },
          {
            "height": 300,
            "url": "https://i.scdn.co/image/ab67616d00001e02b236d0eae2659e7e7adb8b56",
            "width": 300
          },
          {
            "height": 64,
            "url": "https://i.scdn.co/image/ab67616d00004851b236d0eae2659e7e7adb8b56",
            "width": 64
          }
        ],
        "name": "Decode",
        "release_date": "2008-11-04",
        "release_date_precision": "day",
        "total_tracks": 1,
        "type": "album",
        "uri": "spotify:album:70iJhodSPkl7FR1VW4n0KF"
      },
      "artists": [
        {
          "external_urls": {
            "spotify": "https://open.spotify.com/artist/74XFHRwlV6OrjEM0A2NCMF"
          },
          "href": "https://api.spotify.com/v1/artists/74XFHRwlV6OrjEM0A2NCMF",
          "id": "74XFHRwlV6OrjEM0A2NCMF",
          "name": "Paramore",
          "type": "artist",
          "uri": "spotify:artist:74XFHRwlV6OrjEM0A2NCMF"
        }
      ],
      "available_markets": [
        "AD",
        "AE",
        "AR",
        "AT",
        "AU",
        "BE",
        "BG",
        "BH",
        "BO",
        "BR",
        "CA",
        "CH",
        "CL",
        "CO",
        "CR",
        "CY",
        "CZ",
        "DE",
        "DK",
        "DO",
        "DZ",
        "EC",
        "EE",
        "EG",
        "ES",
        "FI",
        "FR",
        "GB",
        "GR",
        "GT",
        "HK",
        "HN",
        "HU",
        "ID",
        "IE",
        "IL",
        "IN",
        "IS",
        "IT",
        "JO",
        "JP",
        "KW",
        "LB",
        "LI",
        "LT",
        "LU",
        "LV",
        "MA",
        "MC",
        "MT",
        "MX",
        "MY",
        "NI",
        "NL",
        "NO",
        "NZ",
        "OM",
        "PA",
        "PE",
        "PH",
        "PL",
        "PS",
        "PT",
        "PY",
        "QA",
        "RO",
        "SA",
        "SE",
        "SG",
        "SK",
        "SV",
        "TH",
        "TN",
        "TR",
        "TW",
        "US",
        "UY",
        "VN",
        "ZA"
      ],
      "disc_number": 1,
      "duration_ms": 261959,
      "explicit": false,
      "external_ids": {
        "isrc": "USAT22103220"
      },
      "external_urls": {
        "spotify": "https://open.spotify.com/track/1ZLtE9tSJdaUiIJ9YoKHQe"
      },
      "href": "https://api.spotify.com/v1/tracks/1ZLtE9tSJdaUiIJ9YoKHQe",
      "id": "1ZLtE9tSJdaUiIJ9YoKHQe",
      "is_local": false,
      "name": "Decode",
      "popularity": 72,
      "preview_url": "https://p.scdn.co/mp3-preview/a553164e09f47b3e66d451d695aa47951fe64582?cid=cfe923b2d660439caf2b557b21f31221",
      "track_number": 1,
      "type": "track",
      "uri": "spotify:track:1ZLtE9tSJdaUiIJ9YoKHQe"
    }
  ],
  "total": 50,
  "limit": 2,
  "offset": 0,
  "href": "https://api.spotify.com/v1/me/top/tracks?limit=2&offset=0",
  "next": "https://api.spotify.com/v1/me/top/tracks?limit=2&offset=2",
  "previous": null
}