{
  "href": "https://api.spotify.com/v1/albums/4aawyAB9vmqN3uQ7FjRGTy/tracks?offset=0&limit=2&locale=de,en-US;q=0.7,en;q=0.3",
  "items": [
    {
      "artists": [
        {
          "external_urls": {
            "spotify": "https://open.spotify.com/artist/0TnOYISbd1XYRBk9myaseg"
          },
          "href": "https://api.spotify.com/v1/artists/0TnOYISbd1XYRBk9myaseg",
          "id": "0TnOYISbd1XYRBk9myaseg",
          "name": "Pitbull",
          "type": "artist",
          "uri": "spotify:artist:0TnOYISbd1XYRBk9myaseg"
        },
        {
          "external_urls": {
            "spotify": "https://open.spotify.com/artist/7iJrDbKM5fEkGdm5kpjFzS"
          },
          "href": "https://api.spotify.com/v1/artists/7iJrDbKM5fEkGdm5kpjFzS",
          "id": "7iJrDbKM5fEkGdm5kpjFzS",
          "name": "Sensato",
          "type": "artist",
          "uri": "spotify:artist:7iJrDbKM5fEkGdm5kpjFzS"
        }
      ],
      "available_markets": [
        "AT",
        "BE",
        "BG",
        "CY",
        "CZ",
        "DE",
        "EE",
        "FI",
        "FR",
        "GR",
        "HU",
        "IE",
        "IT",
        "LV",
        "LT",
        "LU",
        "MT",
        "MX",
        "NL",
        "NO",
        "PL",
        "PT",
        "SK",
        "ES",
        "SE",
        "CH",
        "TR",
        "GB",
        "AD",
        "LI",
        "MC",
        "RO",
        "IL",
        "ZA",
        "SA",
        "AE",
        "BH",
        "QA",
        "OM",
        "KW",
        "EG",
        "MA",
        "DZ",
        "TN",
        "LB",
        "JO",
        "PS",
        "BY",
        "KZ",
        "MD",
        "UA",
        "AL",
        "BA",
        "HR",
        "ME",
        "MK",
        "RS",
        "SI",
        "GH",
        "KE",
        "NG",
        "TZ",
        "UG",
        "AM",
        "BW",
        "BF",
        "CV",
        "CW",
        "GM",
        "GE",
        "GW",
        "LS",
        "LR",
        "MW",
        "ML",
        "NA",
        "NE",
        "SM",
        "ST",
        "SN",
        "SC",
        "SL",
        "AZ",
        "BI",
        "CM",
        "TD",
        "KM",
        "GQ",
        "SZ",
        "GA",
        "GN",
        "KG",
        "MR",
        "MN",
        "RW",
        "TG",
        "UZ",
        "ZW",
        "BJ",
        "MG",
        "MU",
        "MZ",
        "AO",
        "CI",
        "DJ",
        "ZM",
        "CD",
        "CG",
        "IQ",
        "LY",
        "TJ",
        "ET",
        "XK"
      ],
      "disc_number": 1,
      "duration_ms": 85400,
      "explicit": true,
      "external_urls": {
        "spotify": "https://open.spotify.com/track/6OmhkSOpvYBokMKQxpIGx2"
      },
      "href": "https://api.spotify.com/v1/tracks/6OmhkSOpvYBokMKQxpIGx2",
      "id": "6OmhkSOpvYBokMKQxpIGx2",
      "is_local": false,
      "name": "Global Warming (feat. Sensato)",
      "preview_url": "https://p.scdn.co/mp3-preview/81b57845f672fa5a0af749489e311ffb9fd552fe?cid=0b297fa8a249464ba34f5861d4140e58",
      "track_number": 1,
      "type": "track",
      "uri": "spotify:track:6OmhkSOpvYBokMKQxpIGx2"
    },
    {
      "artists": [
        {
          "external_urls": {
            "spotify": "https://open.spotify.com/artist/0TnOYISbd1XYRBk9myaseg"
          },
          "href": "https://api.spotify.com/v1/artists/0TnOYISbd1XYRBk9myaseg",
          "id": "0TnOYISbd1XYRBk9myaseg",
          "name": "Pitbull",
          "type": "artist",
          "uri": "spotify:artist:0TnOYISbd1XYRBk9myaseg"
        },
        {
          "external_urls": {
            "spotify": "https://open.spotify.com/artist/2L8yW8GIoirHEdeW4bWQXq"
          },
          "href": "https://api.spotify.com/v1/artists/2L8yW8GIoirHEdeW4bWQXq",
          "id": "2L8yW8GIoirHEdeW4bWQXq",
          "name": "TJR",
          "type": "artist",
          "uri": "spotify:artist:2L8yW8GIoirHEdeW4bWQXq"
        }
      ],
      "available_markets": [
        "AT",
        "BE",
        "BG",
        "CY",
        "CZ",
        "DE",
        "EE",
        "FI",
        "FR",
        "GR",
        "HU",
        "IE",
        "IT",
        "LV",
        "LT",
        "LU",
        "MT",
        "MX",
        "NL",
        "NO",
        "PL",
        "PT",
        "SK",
        "ES",
        "SE",
        "CH",
        "TR",
        "GB",
        "AD",
        "LI",
        "MC",
        "RO",
        "IL",
        "ZA",
        "SA",
        "AE",
        "BH",
        "QA",
        "OM",
        "KW",
        "EG",
        "MA",
        "DZ",
        "TN",
        "LB",
        "JO",
        "PS",
        "BY",
        "KZ",
        "MD",
        "UA",
        "AL",
        "BA",
        "HR",
        "ME",
        "MK",
        "RS",
        "SI",
        "GH",
        "KE",
        "NG",
        "TZ",
        "UG",
        "AM",
        "BW",
        "BF",
        "CV",
        "CW",
        "GM",
        "GE",
        "GW",
        "LS",
        "LR",
        "MW",
        "ML",
        "NA",
        "NE",
        "SM",
        "ST",
        "SN",
        "SC",
        "SL",
        "AZ",
        "BI",
        "CM",
        "TD",
        "KM",
        "GQ",
        "SZ",
        "GA",
        "GN",
        "KG",
        "MR",
        "MN",
        "RW",
        "TG",
        "UZ",
        "ZW",
        "BJ",
        "MG",
        "MU",
        "MZ",
        "AO",
        "CI",
        "DJ",
        "ZM",
        "CD",
        "CG",
        "IQ",
        "LY",
        "TJ",
        "ET",
        "XK"
      ],
      "disc_number": 1,
      "duration_ms": 206120,
      "explicit": false,
      "external_urls": {
        "spotify": "https://open.spotify.com/track/2iblMMIgSznA464mNov7A8"
      },
      "href": "https://api.spotify.com/v1/tracks/2iblMMIgSznA464mNov7A8",
      "id": "2iblMMIgSznA464mNov7A8",
      "is_local": false,
      "name": "Don't Stop the Party (feat. TJR)",
      "preview_url": "https://p.scdn.co/mp3-preview/4791938e88ca063cb96a5fa8a7a2fad53d0c835e?cid=0b297fa8a249464ba34f5861d4140e58",
      "track_number": 2,
      "type": "track",
      "uri": "spotify:track:2iblMMIgSznA464mNov7A8"
    }
  ],
  "limit": 2,
  "next": "https://api.spotify.com/v1/albums/4aawyAB9vmqN3uQ7FjRGTy/tracks?offset=2&limit=2&locale=de,en-US;q=0.7,en;q=0.3",
  "offset": 0,
  "previous": null,
  "total": 18
}